<svg version="1.1" id="Layer_1" xmlns="http://www.w3.org/2000/svg" xmlns:xlink="http://www.w3.org/1999/xlink"
        x="0px" y="0px" viewBox="-367 234.2 225 93.8" style="enable-background:new -367 234.2 225 93.8;"
        xml:space="preserve">
        <style type="text/css">
            .st0 {
                fill: #FFFFFF;
            }

            .st1 {
                fill: #2B4381;
            }

            .st2 {
                fill: #F5783B;
            }
            .st1 {
                stroke: #2B4381 !important;
                stroke-width: 2;
                fill: transparent;
                stroke-dasharray: 700;
                stroke-dashoffset: 700;
                animation: dash 2s linear infinite;
              }
              @keyframes dash {
                to {
                  stroke-dashoffset: 0;
                  /* works, know why */
                  fill: #2B4381;
                }
              }
            .st2 {
                stroke: #F5783B !important;
                stroke-width: 1;
                fill: transparent;
                stroke-dasharray: 700;
                stroke-dashoffset: 700;
                animation: arrow 2s linear infinite;
              }
              @keyframes arrow {
                to {
                  stroke-dashoffset: 0;
                  /* works, know why */
                  fill: #F5783B;
                }
              }
        </style>
        <g>
            <path class="st0" d="M-142.2,328.7h-223c-0.5,0-1-0.4-1-1v-91.7c0-0.5,0.4-1,1-1h223c0.5,0,1,0.4,1,1v91.7
		C-141.2,328.3-141.6,328.7-142.2,328.7z M-178.9,302.5c-0.4,0.7-1.4,0.7-1.7,0l-1-2.1c-3.9-8.7-7.7-17.3-11.5-26
		c-1.7-3.8-2.5-8.9-5.5-10.8c-3.1-1.9-8.2-0.5-12.4-0.9c-3.2-0.3-4,1-3.9,4.1c0.1,14.9,0.1,29.7,0.1,44.6c0,3.6-0.1,7.3,0.1,10.9
		c0.1,0.9,1.1,2.4,1.8,2.5c3.3,0.3,6.5,0.1,10.2,0.1c0.5,0,1-0.4,1-1l0-34.8c0.3-0.1,0.6-0.1,0.9-0.2c0.5,1,1,2.1,1.5,3.2
		c4.5,10,9.2,20,13.5,30c1.1,2.6,2.7,3.2,5.2,2.9c2.5-0.3,5.2,0.9,6.7-2.8c4.2-10.1,9-20,13.5-30c0.5-1.1,1.1-2.2,1.7-3.3
		c0.4,0.1,0.7,0.2,1.1,0.3v34.6c0,0.5,0.4,1,1,1h11.1c0.5,0,1-0.4,1-1v-59.9c0-0.5-0.4-1-1-1c-3.8,0-7.5,0.2-11.1-0.1
		c-3.2-0.2-4.8,0.7-6.1,3.8c-4.7,11.3-9.8,22.3-14.7,33.5c0,0.1-0.1,0.2-0.1,0.2C-178.1,301-178.5,301.7-178.9,302.5z M-254.9,326.3
		c18.7,0,33.1-14,33.2-32.3s-14.4-32.6-33-32.6c-18.5,0-33.2,14.5-33.1,32.6C-287.8,312-273.3,326.3-254.9,326.3z M-292.3,263.8
		c0-0.5-0.4-1-1-1c-16.1,0-31.7,0-47.4,0.1c-0.8,0-2.2,0.8-2.2,1.2c-0.2,3.4-0.1,6.7-0.1,10.3c0,0.5,0.4,1,1,1c3.2,0,13.5,0,16.7,0
		c0.5,0,1,0.4,1,1v14.7c0,10.1-0.1,20.2,0.1,30.4c0,1.1,1.1,3.2,1.8,3.2c3.5,0.3,7,0.2,10.9,0.2c0.5,0,1-0.4,1-1v-47.8
		c0-0.5,0.4-1,1-1c3.2,0,13.2,0,16.4,0c0.5,0,1-0.5,1-1C-292.3,270.6-292.3,267.4-292.3,263.8z M-362.1,264v59.6c0,0.5,0.4,1,1,1
		h10.8c0.5,0,1-0.4,1-1V264c0-0.5-0.4-1-1-1h-10.8C-361.7,263-362.1,263.4-362.1,264z M-279.6,265.4c12.2-8.9,26.4-12.2,41.2-13.9
		c0.5-0.1,0.9,0.3,1.1,0.8c0.2,1,0.4,1.8,0.7,2.9c0.2,0.6,0.9,0.9,1.5,0.6c5.1-3.1,10-6,15.4-9.2c0.7-0.4,0.6-1.4,0-1.7
		c-5.5-2.9-10.5-5.5-16.2-8.4c-0.7-0.4-1.5,0.2-1.4,1c0.7,5.2-3.6,4.8-6.6,5.7c-10.4,2.9-20.5,6.1-29,13.3c-2.8,2.4-5.7,4.8-7.9,7.7
		C-281.6,264.8-280.5,266-279.6,265.4z" />
            <path class="st1" d="M-180.7,302.6c0.3,0.8,1.4,0.8,1.7,0.1l1.3-2.6c5-11.2,10.1-22.3,14.8-33.6c1.3-3.1,2.9-4.1,6.1-3.8
		c3.6,0.3,7.3,0.1,11.1,0.1c0.5,0,1,0.4,1,1v59.9c0,0.5-0.4,1-1,1h-11.1c-0.5,0-1-0.4-1-1v-34.6c-0.4-0.1-0.7-0.2-1.1-0.3
		c-0.6,1.1-1.2,2.2-1.7,3.3c-4.5,10-9.3,19.9-13.5,30c-1.5,3.7-4.2,2.6-6.7,2.8c-2.5,0.3-4.1-0.3-5.2-2.9c-4.4-10.1-9-20-13.5-30
		c-0.5-1.1-1-2.1-1.5-3.2c-0.3,0.1-0.6,0.1-0.9,0.2l0,34.8c0,0.5-0.4,1-1,1c-3.6,0-6.9,0.1-10.2-0.1c-0.7,0-1.8-1.6-1.8-2.5
		c-0.2-3.6-0.1-7.2-0.1-10.9c0-14.9,0.1-29.7-0.1-44.6c0-3,0.7-4.3,3.9-4.1c4.2,0.4,9.3-1.1,12.4,0.9c2.9,1.9,3.8,7,5.5,10.8
		c3.9,8.7,7.7,17.3,11.5,26L-180.7,302.6z" />
            <path class="st1" d="M-254.9,326.3c-18.4,0-32.9-14.3-32.9-32.3c-0.2-18.1,14.6-32.6,33-32.6c18.6,0,33.1,14.3,33,32.6
		C-221.8,312.3-236.2,326.3-254.9,326.3z M-235.7,294c0.1-11-8.4-19.9-19.1-20c-10.6,0-19.2,8.9-19.2,19.9
		c0,10.9,8.3,19.6,18.9,19.8C-244.4,313.9-235.8,305.1-235.7,294z" />
            <path class="st1" d="M-292.3,263.8v10.3c0,0.5-0.4,1-1,1h-16.5c-0.5,0-1,0.4-1,1v47.8c0,0.5-0.4,1-1,1c-3.9,0-7.5,0.2-10.9-0.2
		c-0.7-0.1-1.8-2.1-1.8-3.2c-0.1-10.1-0.1-20.2-0.1-30.4v-14.7c0-0.5-0.4-1-1-1l-16.7,0c-0.5,0-1-0.4-1-1c0-3.6-0.1-7,0.1-10.3
		c0-0.5,1.5-1.2,2.2-1.2c15.7,0,31.4,0,47.5,0C-292.7,262.8-292.3,263.2-292.3,263.8z" />
            <path class="st1" d="M-360,263h9.6c0.5,0,1,0.4,1,1v59.6c0,0.5-0.4,1-1,1l-10.8,0c-0.5,0-1-0.4-1-1c0-19.3,0-38.8,0-58.4
		C-362.1,263.9-361.2,263-360,263z" />
            <path class="st2" d="M-279.6,265.3c-0.9,0.7-2-0.5-1.3-1.4c2.3-2.9,5.1-5.4,7.9-7.7c8.4-7.1,18.6-10.4,29-13.3
		c3.2-0.9,7.4-0.3,6.6-5.7c-0.1-0.8,0.7-1.3,1.4-1c5.7,2.9,10.6,5.6,16.2,8.4c0.7,0.4,0.7,1.3,0,1.7c-5.4,3.2-10.3,6.2-15.4,9.2
		c-0.6,0.3-1.3,0-1.5-0.6c-0.3-1-0.5-1.9-0.7-2.9c-0.1-0.5-0.6-0.8-1.1-0.8C-253.3,253.1-267.4,256.4-279.6,265.3z" />
            <path class="st0" d="M-235.7,294c-0.1,11.1-8.8,19.9-19.4,19.7c-10.6-0.2-18.9-8.9-18.9-19.8c0-11,8.6-19.9,19.2-19.9
		C-244.1,274.1-235.6,283-235.7,294z" />
        </g>
    </svg>